Disaster Relief Project: Part I
…
# https://yardstick.tidymodels.org/reference/roc_curve.html
logistic.roc <- logistic.pred %>% roc_curve(actual,prediction)
logistic.roc

#> # A tibble: 39,909 x 3
#>     .threshold specificity sensitivity
#>          <dbl>       <dbl>       <dbl>
#>  1 -Inf             0                1
#>  2    2.22e-16      0                1
#>  3    9.46e-14      0.0658           1
#>  4    9.61e-14      0.0663           1
#>  5    1.02e-13      0.0668           1
#>  6    1.08e-13      0.0673           1
#>  7    1.19e-13      0.0678           1
#>  8    1.37e-13      0.0682           1
#>  9    1.47e-13      0.0692           1
#> 10    1.52e-13      0.0697           1
#> #  with 39,899 more rows
…
# https://yardstick.tidymodels.org/reference/roc_curve.html
lda.roc <- lda.pred %>% roc_curve(actual,prediction, event_level='second') #!!!!!!!!!!!!!!!!!!!!!!! only 12 rows
lda.roc

#> # A tibble: 49,464 x 3
#>     .threshold specificity sensitivity
#>          <dbl>       <dbl>       <dbl>
#>  1 -Inf          0                   1
#>  2    1.92e-16   0                   1
#>  3    5.02e-16   0.0000163           1
#>  4    4.42e-15   0.0000327           1
#>  5    1.24e-14   0.0000490           1
#>  6    1.50e-14   0.0000653           1
#>  7    1.85e-14   0.0000817           1
#>  8    2.01e-14   0.0000980           1
#>  9    2.18e-14   0.000114            1
#> 10    2.51e-14   0.000131            1
#> #  with 49,454 more rows
…
# https://yardstick.tidymodels.org/reference/roc_curve.html
qda.roc <- qda.pred %>% roc_curve(actual,prediction, event_level='second') #!!!!!!!!!!!!!!!!!!!!!!! only 12 rows
qda.roc

#> # A tibble: 49,464 x 3
#>     .threshold specificity sensitivity
#>          <dbl>       <dbl>       <dbl>
#>  1 -Inf          0                   1
#>  2    8.05e-33   0                   1
#>  3    3.63e-31   0.0000163           1
#>  4    5.81e-30   0.0000327           1
#>  5    3.02e-29   0.0000490           1
#>  6    1.87e-28   0.0000653           1
#>  7    6.71e-28   0.0000817           1
#>  8    9.91e-28   0.0000980           1
#>  9    1.54e-27   0.000114            1
#> 10    1.03e-26   0.000131            1
#> #  with 49,454 more rows
…
knn.pred <- knn.fit %>% predict(data.test, type='prob')
data.test.knn <- data.test %>% mutate(prediction = knn.pred[,1])

knn.roc <- data.test.knn %>% roc_curve(Class.cl,prediction)
knn.roc

#> # A tibble: 31 x 3
#>    .threshold specificity sensitivity
#>         <dbl>       <dbl>       <dbl>
#>  1  -Inf            0            1   
#>  2     0            0            1   
#>  3     0.0714       0.871        1   
#>  4     0.0909       0.873        1   
#>  5     0.1          0.877        1   
#>  6     0.111        0.879        1   
#>  7     0.125        0.881        1   
#>  8     0.143        0.890        1   
#>  9     0.2          0.917        1.00
#> 10     0.25         0.919        1.00
#> #  with 21 more rows

knn.auc <- data.test.knn %>% roc_auc(Class.cl,prediction)
knn.auc

#> # A tibble: 1 x 3
#>   .metric .estimator .estimate
#>   <chr>   <chr>          <dbl>
#> 1 roc_auc binary          1.00

knn.pr <- data.test.knn %>% pr_curve(Class.cl,prediction)
knn.pr

#> # A tibble: 30 x 3
#>    .threshold recall precision
#>         <dbl>  <dbl>     <dbl>
#>  1    Inf      0         1    
#>  2      1      0.991     1    
#>  3      0.930  0.996     1.00 
#>  4      0.918  0.996     1.00 
#>  5      0.889  0.996     1.00 
#>  6      0.875  0.997     1.00 
#>  7      0.857  0.997     0.999
#>  8      0.8    0.997     0.999
#>  9      0.778  0.998     0.999
#> 10      0.75   0.998     0.999
#> #  with 20 more rows
…
